{
  "project_info": {
    "project_number": "237557609325",
    "firebase_url": "https://renthouse-bc35b.firebaseio.com",
    "project_id": "renthouse-bc35b",
    "storage_bucket": "renthouse-bc35b.appspot.com"
  },
  "client": [
    {
      "client_info": {
        "mobilesdk_app_id": "1:237557609325:android:1a7468ff989615b71aa064",
        "android_client_info": {
          "package_name": "id.co.innovacia.maps"
        }
      },
      "oauth_client": [
        {
          "client_id": "237557609325-00b8svm3q38v39qom0i019vd4i45ftc4.apps.googleusercontent.com",
          "client_type": 1,
          "android_info": {
            "package_name": "id.co.innovacia.maps",
            "certificate_hash": "ebea292dbb9846c9917ef27ad5a270f1ef797209"
          }
        },
        {
          "client_id": "237557609325-paje6hfjron0s1uteoans1a7154n1brn.apps.googleusercontent.com",
          "client_type": 3
        }
      ],
      "api_key": [
        {
          "current_key": "AIzaSyBD73NUv-PBT0kjPYMVRaNfy53UwjY99e0"
        }
      ],
      "services": {
        "appinvite_service": {
          "other_platform_oauth_client": [
            {
              "client_id": "237557609325-paje6hfjron0s1uteoans1a7154n1brn.apps.googleusercontent.com",
              "client_type": 3
            }
          ]
        }
      }
    }
  ],
  "configuration_version": "1"
}